ID,articul,name,price,vendor,country,images
1,,ASUS,44400,Asus,Китай,http://shopexpress.difocus.ru/alboms/3/3/zenbook.jpg
2,MBA-123,,45000,Apple,Китай,http://shopexpress.difocus.ru/alboms/3/3/apple-air-13.jpg
3,HD-8838,Philips,8838,,Россия,ksdkf.jpg
4,HD-8838,Panasonic,,,Россия,
